…
read in counts files

```r
counts_data <- read_csv("00_deseq2_input/00_combined_counts.csv") %>%
  column_to_rownames(var = "locus_tag")
counts_meta <- read_csv("00_deseq2_input/00_combined_meta.csv")

# Add group column for alternate Deseq2 design
## we expect to see DE only in WT mGlu for direct targets.
counts_meta$group <- str_c(counts_meta$genotype, counts_meta$glucose)
counts_meta$group <- str_replace(counts_meta$group, "WTmGlu", "dependent")
counts_meta$group <- str_replace(counts_meta$group, ".*Glu$", "independent")
counts_meta
## # A tibble: 32 × 11
##    sample        genotype glucose time  batch    SE_PE `counted with` sum_counts
##    <chr>         <chr>    <chr>   <chr> <chr>    <chr> <chr>               <dbl>
##  1 10_WT_B_S18   WT       mGlu    24hr  RH_SP_2… PE    featureCounts    17996178
##  2 11_WT_C_S19   WT       mGlu    24hr  RH_SP_2… PE    featureCounts    23748234
##  3 12_WT_D_S20   WT       mGlu    24hr  RH_SP_2… PE    featureCounts    12719797
##  4 13_TRMB_A_S21 trmB     mGlu    24hr  RH_SP_2… PE    featureCounts    16357575
##  5 14_TRMB_B_S22 trmB     mGlu    24hr  RH_SP_2… PE    featureCounts    15866610
##  6 15_TRMB_C_S23 trmB     mGlu    24hr  RH_SP_2… PE    featureCounts    15910207
##  7 16_TRMB_D_S24 trmB     mGlu    24hr  RH_SP_2… PE    featureCounts    18375973
##  8 17_WT_ref_S25 ref      YPC23   stat  RH_SP_2… PE    featureCounts    22686381
##  9 1_WT_A_S9     WT       pGlu    24hr  RH_SP_2… PE    featureCounts    26374459
## 10 2_WT_B_S10    WT       pGlu    24hr  RH_SP_2… PE    featureCounts    21963359
## # ℹ 22 more rows
## # ℹ 3 more variables: percent_aligned <dbl>, pyrF <lgl>, group <chr>
```
…
