…
# peaks
peaks <- read_csv("04a_peak_annotation/04a_consensus_genelist.csv")

# motifs
all_motif <- read_csv("04d_motif_annotation/motifs_annotated.csv")
peak_motif <- all_motif[all_motif$locus_tag %in% peaks$locus_tag,]

# look at the cogs in peaks
hca_cogs[hca_cogs$locus_tag %in% peaks$locus_tag, ]
```

```
## # A tibble: 25 × 8
##    chr         acc   locus_tag old_locus_tag annotation COG_category Description
##    <chr>       <chr> <chr>     <chr>         <chr>      <chr>        <chr>      
##  1 NC_015948.1 WP_0… HAH_RS00… HAH_0189      hypotheti… -            -          
##  2 NC_015948.1 WP_0… HAH_RS04… HAH_0887      cysteine … E            Cysteine s…
##  3 NC_015948.1 WP_0… HAH_RS04… HAH_1011      CBS domai… S            Signal tra…
##  4 NC_015948.1 WP_0… HAH_RS04… HAH_1012      Gfo/Idh/M… S            dehydrogen…
##  5 NC_015948.1 WP_0… HAH_RS06… HAH_1264      universal… T            COG0589 Un…
##  6 NC_015948.1 WP_0… HAH_RS06… HAH_1265      phosphoen… C            phosphoeno…
##  7 NC_015948.1 WP_0… HAH_RS06… HAH_1365      FAD-depen… C            COG1018 Fl…
##  8 NC_015948.1 WP_0… HAH_RS06… HAH_1366      2-oxoacid… C            COG1014 Py…
##  9 NC_015948.1 WP_0… HAH_RS06… HAH_1418      3-hydroxy… I            3-hydroxya…
## 10 NC_015948.1 WP_0… HAH_RS06… HAH_1419      class 1 f… G            D-fructose…
## # ℹ 15 more rows
## # ℹ 1 more variable: Preferred_name <chr>
```
…
