…
```r

# of the genes that are shared, how well does expression correlate?
(tmp <- inner_join(all_sig[c(1:3,8:9)], no_revert_sig[c(1:3)], by = "locus_tag", suffix = c(".pyr", ".nopyr")))
## # A tibble: 32 × 7
##    locus_tag   baseMean.pyr log2FoldChange.pyr old_locus_tag annotation         
##    <chr>              <dbl>              <dbl> <chr>         <chr>              
##  1 HAH_RS19805        4565.              -4.63 HAH_0188      hypothetical prote…
##  2 HAH_RS02790         456.              -1.48 HAH_0576      hypothetical prote…
##  3 HAH_RS04315         367.              -1.36 HAH_0887      cysteine synthase A
##  4 HAH_RS04465       55413.               3.33 HAH_0919      glutamate synthase…
##  5 HAH_RS04485        1207.              -1.61 HAH_0923      transcriptional re…
##  6 HAH_RS05300         544.              -2.22 HAH_1090      TRAP transporter f…
##  7 HAH_RS05305         449.              -1.83 HAH_1091      TAXI family TRAP t…
##  8 HAH_RS06030       15966.              -3.05 HAH_1239      Glu/Leu/Phe/Val de…
##  9 HAH_RS06035        9977.              -2.28 HAH_1240      arginase           
## 10 HAH_RS06050        2486.              -2.87 HAH_1243      amino acid ABC tra…
## # ℹ 22 more rows
## # ℹ 2 more variables: baseMean.nopyr <dbl>, log2FoldChange.nopyr <dbl>
…
